module github.com/containers/buildah

go 1.12

require (
	github.com/containernetworking/cni v0.8.1
	github.com/containers/common v0.40.1
	github.com/containers/image/v5 v5.13.2
	github.com/containers/ocicrypt v1.1.1
	github.com/containers/storage v1.32.4
	github.com/docker/distribution v2.7.1+incompatible
	github.com/docker/go-units v0.4.0
	github.com/docker/libnetwork v0.8.0-dev.2.0.20190625141545-5a177b73e316
	github.com/fsouza/go-dockerclient v1.7.3
	github.com/ghodss/yaml v1.0.0
	github.com/hashicorp/go-multierror v1.1.1
	github.com/ishidawataru/sctp v0.0.0-20210226210310-f2269e66cdee // indirect
	github.com/konsorten/go-windows-terminal-sequences v1.0.3 // indirect
	github.com/mattn/go-shellwords v1.0.12
	github.com/onsi/ginkgo v1.16.4
	github.com/onsi/gomega v1.13.0
	github.com/opencontainers/go-digest v1.0.0
	github.com/opencontainers/image-spec v1.0.2-0.20190823105129-775207bd45b6
	github.com/opencontainers/runc v1.0.0
	github.com/opencontainers/runtime-spec v1.0.3-0.20210326190908-1c3f411f0417
	github.com/opencontainers/runtime-tools v0.9.0
	github.com/opencontainers/selinux v1.8.2
	github.com/openshift/imagebuilder v1.2.2-0.20210415181909-87f3e48c2656
	github.com/pkg/errors v0.9.1
	github.com/seccomp/libseccomp-golang v0.9.2-0.20200616122406-847368b35ebf
	github.com/sirupsen/logrus v1.8.1
	github.com/spf13/cobra v1.1.3
	github.com/spf13/pflag v1.0.5
	github.com/stretchr/testify v1.7.0
	github.com/syndtr/gocapability v0.0.0-20200815063812-42c35b437635
	go.etcd.io/bbolt v1.3.6
	golang.org/x/crypto v0.0.0-20210322153248-0c34fe9e7dc2
	golang.org/x/sync v0.0.0-20201207232520-09787c993a3a
	golang.org/x/sys v0.0.0-20210603125802-9665404d3644
	k8s.io/klog v1.0.0 // indirect
)

replace github.com/sirupsen/logrus => github.com/sirupsen/logrus v1.4.2
